Wrangling with Macbeth and Mariam
…
At this step, stopwords will be removed and then the dataframe
regrouped to get the frequency for each word:

df_no_stopwords <- 
  df_token %>% 
  filter(!df_token$word %in% stop_words$word) %>% 
  count(title, word, gender, character) %>% 
  arrange(desc(n)) 

df_no_stopwords

## # A tibble: 10,210 × 5
##    title                  word    gender    character        n
##    <chr>                  <chr>   <chr>     <chr>        <int>
##  1 Macbeth                macbeth undefined macbeth        158
##  2 Macbeth                macbeth female    lady macbeth    63
##  3 Macbeth                macduff undefined macduff         62
##  4 Macbeth                lady    female    lady macbeth    59
##  5 The Tragedie of Mariam herod   male      herod           58
##  6 The Tragedie of Mariam thou    male      herod           54
##  7 Macbeth                thou    undefined macbeth         40
##  8 The Tragedie of Mariam thy     male      herod           40
##  9 Macbeth                malcolm male      malcolm         39
## 10 The Tragedie of Mariam mariam  male      herod           39
## # ℹ 10,200 more rows
…
